﻿      WW  WXW  WWW         
 WWWWWE W W  WW E W        
WE EE   W W     W  WWW     
W EWWW   WWWWWWW W  E W    
WWW   W   E     E WW W     
       W   WWWWW  WE W     
  WWWWW   W     W   W      
  W  E   E WW   WWWW       
 WE WWW      WW            
  WW   WWW  E  WW
        W  E   E W        
       W~~~~~~~WW           
       WW~~~~~WW            
         WWWWW              
ENDLEVEL

WEST=NONE
EAST=NONE
NORTH=Hole lvl 2
SOUTH=NONE
DUNGEON=NONE

#NPC number = NPC Type = NPC Name